<svg id="Group_524" data-name="Group 524" xmlns="http://www.w3.org/2000/svg" width="147.429" height="34.362" viewBox="0 0 147.429 34.362">
  <g id="LAB" transform="translate(0 25.362)" style="isolation: isolate">
    <text id="IOT" transform="translate(0 7)" fill="#dc001a" font-size="7" font-family="SegoeUI, Segoe UI" letter-spacing="0.3em" style="isolation: isolate"><tspan x="0" y="0">IOT</tspan></text>
  </g>
  <g id="Group_451" data-name="Group 451" transform="translate(0)">
    <g id="Group_450" data-name="Group 450">
      <g id="Ellipse_41" data-name="Ellipse 41" transform="translate(20.993 28.724)">
        <g id="Group_436" data-name="Group 436">
          <circle id="Ellipse_65" data-name="Ellipse 65" cx="2.155" cy="2.155" r="2.155" fill="#dc001a"/>
        </g>
      </g>
      <g id="Group_442" data-name="Group 442" transform="translate(0 2.001)">
        <g id="Group_437" data-name="Group 437">
          <path id="Path_3080" data-name="Path 3080" d="M392.823,277.6q-5.09,0-7.788-2.353t-2.7-6.979q0-4.6,2.7-6.969t7.788-2.338l9.256.051V262.3h-8.973a7.4,7.4,0,0,0-4.962,1.413q-1.621,1.414-1.62,4.552t1.62,4.562a7.34,7.34,0,0,0,4.962,1.428h9.229V277.6Z" transform="translate(-382.334 -258.96)" fill="#fff"/>
        </g>
        <g id="Group_438" data-name="Group 438" transform="translate(27.458 0.128)">
          <path id="Path_3081" data-name="Path 3081" d="M409.233,277.423v-6.556l-9.744-11.827h5.091l6.71,8.329,6.684-8.329h5.091l-9.693,11.8v6.582Z" transform="translate(-399.489 -259.04)" fill="#fff"/>
        </g>
        <g id="Group_439" data-name="Group 439" transform="translate(59.517 0.128)">
          <path id="Path_3082" data-name="Path 3082" d="M419.519,277.423V259.091L435,259.04a6.828,6.828,0,0,1,4.538,1.272,4.761,4.761,0,0,1,1.479,3.817,4.228,4.228,0,0,1-1.7,3.728,3.993,3.993,0,0,1,1.669,1.634,5.533,5.533,0,0,1,.541,2.609,5.071,5.071,0,0,1-1.479,3.945,6.547,6.547,0,0,1-4.536,1.351Zm14.989-15.092H423.632v4.113h10.876q2.338,0,2.34-2.108Q436.848,262.332,434.508,262.331Zm.514,7.4h-11.39v4.371h11.39q2.338,0,2.34-2.212Q437.362,269.736,435.022,269.735Z" transform="translate(-419.519 -259.04)" fill="#fff"/>
        </g>
        <g id="Group_440" data-name="Group 440" transform="translate(90.008 0.154)">
          <path id="Path_3083" data-name="Path 3083" d="M438.569,277.413v-3.342h14.14a1.852,1.852,0,0,0,1.466-.554,2.23,2.23,0,0,0,.488-1.529,2.327,2.327,0,0,0-.488-1.569,1.832,1.832,0,0,0-1.466-.567H440.984v-3.316h11.7q1.978,0,1.978-2.082,0-2.055-1.978-2.057H438.569v-3.342h14.885a6.013,6.013,0,0,1,4.152,1.324,4.7,4.7,0,0,1,1.479,3.689,6.128,6.128,0,0,1-.488,2.43,3.213,3.213,0,0,1-1.62,1.684,3.362,3.362,0,0,1,1.62,1.658,5.841,5.841,0,0,1,.488,2.4A4.948,4.948,0,0,1,457.606,276a5.764,5.764,0,0,1-4.152,1.415Z" transform="translate(-438.569 -259.056)" fill="#fff"/>
        </g>
        <g id="Group_441" data-name="Group 441" transform="translate(111.519 0.128)">
          <path id="Path_3084" data-name="Path 3084" d="M482.174,259.04h-5.013l-5.528,7.533-1.183.843-1.183-.843-5.528-7.533h-5.013l6.89,9.2L452.2,286.119l-.19.253h5.15l12.11-16.457,1.17-1.683,1.195,1.683,5.5,7.507h5.039l-6.89-9.178Z" transform="translate(-452.008 -259.04)" fill="#fff"/>
        </g>
      </g>
      <g id="Group_443" data-name="Group 443" transform="translate(115.321 2.129)">
        <rect id="Rectangle_110" data-name="Rectangle 110" width="6.13" height="3.265" fill="#fff"/>
      </g>
      <g id="Group_444" data-name="Group 444" transform="translate(110.524 27.576)">
        <rect id="Rectangle_111" data-name="Rectangle 111" width="6.13" height="3.265" fill="#fff"/>
      </g>
      <g id="Group_445" data-name="Group 445" transform="translate(138.47 2.129)">
        <rect id="Rectangle_112" data-name="Rectangle 112" width="6.13" height="3.265" fill="#fff"/>
      </g>
      <g id="Group_446" data-name="Group 446" transform="translate(138.47 17.249)">
        <rect id="Rectangle_113" data-name="Rectangle 113" width="6.13" height="3.265" fill="#fff"/>
      </g>
      <g id="Group_447" data-name="Group 447" transform="translate(115.322 1.326)">
        <path id="Path_3085" data-name="Path 3085" d="M483.663,278.53l-8.365,0L461.9,260.145h-7.52v-1.607h8.338l13.395,18.382,7.547,0Z" transform="translate(-454.384 -258.538)" fill="#dc001a"/>
      </g>
      <g id="Group_448" data-name="Group 448" transform="translate(24.307 1.326)">
        <path id="Path_3086" data-name="Path 3086" d="M397.521,288.9v-1.607l91.28,0,20.688-28.749h8.325v1.607H510.28l-20.688,28.749Z" transform="translate(-397.521 -258.538)" fill="#dc001a"/>
      </g>
      <g id="Ellipse_41-2" data-name="Ellipse 41" transform="translate(143.119)">
        <g id="Group_449" data-name="Group 449">
          <circle id="Ellipse_66" data-name="Ellipse 66" cx="2.155" cy="2.155" r="2.155" fill="#dc001a"/>
        </g>
      </g>
    </g>
  </g>
</svg>
