<svg id="Group_486" data-name="Group 486" xmlns="http://www.w3.org/2000/svg" width="147.429" height="34.362" viewBox="0 0 147.429 34.362">
  <g id="LAB" transform="translate(0 25.362)" style="isolation: isolate">
    <text id="TESTER" transform="translate(0 7)" fill="#dc001a" font-size="7" font-family="SegoeUI, Segoe UI" letter-spacing="0.3em" style="isolation: isolate"><tspan x="0" y="0">TESTER</tspan></text>
  </g>
  <g id="Group_485" data-name="Group 485" transform="translate(0)">
    <g id="Group_484" data-name="Group 484">
      <g id="Ellipse_41" data-name="Ellipse 41" transform="translate(45.519 28.724)">
        <g id="Group_470" data-name="Group 470">
          <circle id="Ellipse_69" data-name="Ellipse 69" cx="2.155" cy="2.155" r="2.155" fill="#dc001a"/>
        </g>
      </g>
      <g id="Group_476" data-name="Group 476" transform="translate(0 2.001)">
        <g id="Group_471" data-name="Group 471">
          <path id="Path_3094" data-name="Path 3094" d="M392.823,163q-5.09,0-7.788-2.353t-2.7-6.98q0-4.6,2.7-6.967t7.788-2.34l9.256.051V147.7h-8.973a7.392,7.392,0,0,0-4.962,1.415q-1.621,1.414-1.62,4.55t1.62,4.563a7.349,7.349,0,0,0,4.962,1.426h9.229V163Z" transform="translate(-382.334 -144.358)" fill="#fff"/>
        </g>
        <g id="Group_472" data-name="Group 472" transform="translate(27.458 0.128)">
          <path id="Path_3095" data-name="Path 3095" d="M409.233,162.821v-6.556l-9.744-11.827h5.091l6.71,8.331,6.684-8.331h5.091l-9.693,11.8v6.582Z" transform="translate(-399.489 -144.438)" fill="#fff"/>
        </g>
        <g id="Group_473" data-name="Group 473" transform="translate(59.517 0.128)">
          <path id="Path_3096" data-name="Path 3096" d="M419.519,162.821v-18.33L435,144.438a6.828,6.828,0,0,1,4.538,1.272,4.764,4.764,0,0,1,1.479,3.819,4.228,4.228,0,0,1-1.7,3.728,3.981,3.981,0,0,1,1.669,1.633,5.533,5.533,0,0,1,.541,2.609,5.075,5.075,0,0,1-1.479,3.947,6.555,6.555,0,0,1-4.536,1.349Zm14.989-15.09H423.632v4.112h10.876q2.338,0,2.34-2.108Q436.848,147.73,434.508,147.73Zm.514,7.4h-11.39v4.37h11.39q2.338,0,2.34-2.21Q437.362,155.133,435.022,155.135Z" transform="translate(-419.519 -144.438)" fill="#fff"/>
        </g>
        <g id="Group_474" data-name="Group 474" transform="translate(90.008 0.154)">
          <path id="Path_3097" data-name="Path 3097" d="M438.569,162.811v-3.342h14.14a1.857,1.857,0,0,0,1.466-.552,2.238,2.238,0,0,0,.488-1.53,2.327,2.327,0,0,0-.488-1.569,1.837,1.837,0,0,0-1.466-.565H440.984v-3.316h11.7q1.978,0,1.978-2.082,0-2.058-1.978-2.057H438.569v-3.344h14.885a6.005,6.005,0,0,1,4.152,1.325,4.7,4.7,0,0,1,1.479,3.689,6.14,6.14,0,0,1-.488,2.43,3.218,3.218,0,0,1-1.62,1.684,3.362,3.362,0,0,1,1.62,1.658,5.828,5.828,0,0,1,.488,2.4,4.954,4.954,0,0,1-1.479,3.755,5.764,5.764,0,0,1-4.152,1.413Z" transform="translate(-438.569 -144.454)" fill="#fff"/>
        </g>
        <g id="Group_475" data-name="Group 475" transform="translate(111.519 0.129)">
          <path id="Path_3098" data-name="Path 3098" d="M482.174,144.438h-5.013l-5.528,7.533-1.183.843-1.183-.843-5.528-7.533h-5.013l6.89,9.2L452.2,171.518l-.19.253h5.15l12.11-16.457,1.17-1.683,1.195,1.683,5.5,7.507h5.039l-6.89-9.178Z" transform="translate(-452.008 -144.438)" fill="#fff"/>
        </g>
      </g>
      <g id="Group_477" data-name="Group 477" transform="translate(115.321 2.13)">
        <rect id="Rectangle_118" data-name="Rectangle 118" width="6.13" height="3.265" fill="#fff"/>
      </g>
      <g id="Group_478" data-name="Group 478" transform="translate(110.524 27.576)">
        <rect id="Rectangle_119" data-name="Rectangle 119" width="6.13" height="3.265" fill="#fff"/>
      </g>
      <g id="Group_479" data-name="Group 479" transform="translate(138.47 2.13)">
        <rect id="Rectangle_120" data-name="Rectangle 120" width="6.13" height="3.265" fill="#fff"/>
      </g>
      <g id="Group_480" data-name="Group 480" transform="translate(138.47 17.249)">
        <rect id="Rectangle_121" data-name="Rectangle 121" width="6.13" height="3.265" fill="#fff"/>
      </g>
      <g id="Group_481" data-name="Group 481" transform="translate(115.322 1.326)">
        <path id="Path_3099" data-name="Path 3099" d="M483.663,163.928l-8.365,0L461.9,145.543h-7.52v-1.607h8.338l13.395,18.382,7.547,0Z" transform="translate(-454.384 -143.936)" fill="#dc001a"/>
      </g>
      <g id="Group_482" data-name="Group 482" transform="translate(48.313 1.326)">
        <path id="Path_3100" data-name="Path 3100" d="M412.519,174.294v-1.607l67.274,0,20.688-28.749h8.325v1.607h-7.534l-20.688,28.749Z" transform="translate(-412.519 -143.936)" fill="#dc001a"/>
      </g>
      <g id="Ellipse_41-2" data-name="Ellipse 41" transform="translate(143.119)">
        <g id="Group_483" data-name="Group 483">
          <circle id="Ellipse_70" data-name="Ellipse 70" cx="2.155" cy="2.155" r="2.155" fill="#dc001a"/>
        </g>
      </g>
    </g>
  </g>
</svg>
