<svg id="_064-hourglass" data-name="064-hourglass" xmlns="http://www.w3.org/2000/svg" width="56.601" height="68.385" viewBox="0 0 56.601 68.385">
  <rect id="Rectangle_6" data-name="Rectangle 6" width="36.058" height="5.595" transform="translate(0 62.79)" fill="#e40022"/>
  <path id="Path_473" data-name="Path 473" d="M68,115.863H93.162a16.8,16.8,0,0,1-.326-3.3A17.715,17.715,0,0,1,93.029,110H68Z" transform="translate(-67.879 -97.673)" fill="#e40022"/>
  <path id="Path_474" data-name="Path 474" d="M120.82,161H100v6.34a13.2,13.2,0,0,0,26.3,1.619A16.83,16.83,0,0,1,120.82,161Z" transform="translate(-95.068 -141.007)" fill="#e40022"/>
  <path id="Path_475" data-name="Path 475" d="M139.729,385.906a4.116,4.116,0,0,0-2.995,1.288l-5.452,5.791H148l-5.229-5.745A4.1,4.1,0,0,0,139.729,385.906Z" transform="translate(-121.648 -332.103)" fill="#e40022"/>
  <path id="Path_476" data-name="Path 476" d="M126.457,322.671V316.38a13.229,13.229,0,0,0-26.457,0v6.291h2.228l6.612-7.03a5.932,5.932,0,0,1,8.685.075l6.331,6.955Z" transform="translate(-95.068 -261.789)" fill="#e40022"/>
  <path id="Path_477" data-name="Path 477" d="M309.357,107.034c-.015,0-.025.023-.04.022a.392.392,0,0,0-.317.393v1.431c0,.064.022.13.022.2s-.022.134-.022.2v5.061a4.565,4.565,0,0,0,4.359,4.592V107h-3.882C309.435,107,309.4,107.034,309.357,107.034Z" transform="translate(-272.65 -95.124)" fill="#e40022"/>
  <path id="Path_478" data-name="Path 478" d="M339.141,60.523a2.023,2.023,0,0,0-2.491-.018,5.9,5.9,0,0,1,2.491.018Z" transform="translate(-296.144 -55.262)" fill="#e40022"/>
  <path id="Path_479" data-name="Path 479" d="M354.213,107.049c-.008,0,.006-.011,0-.011-.043,0-.084-.034-.125-.034H350v11.928a4.576,4.576,0,0,0,4.51-4.593v-1.9c0-.076-.033-.156-.033-.238s.033-.162.033-.238v-4.51a.4.4,0,0,0-.3-.4Z" transform="translate(-307.487 -95.128)" fill="#e40022"/>
  <path id="Path_480" data-name="Path 480" d="M260.137,28a14.92,14.92,0,1,0,14.92,14.92A14.92,14.92,0,0,0,260.137,28Zm10.753,12a2.877,2.877,0,0,1-2.848,2.884h-.759v1.353h.358a2.756,2.756,0,0,1,2.8,2.791v.656a.9.9,0,1,1-1.8,0v-.656a.952.952,0,0,0-1-.987h-.358v1.173a6.375,6.375,0,0,1-.222,1.729,2.873,2.873,0,0,1,2.177,2.766v.8a.9.9,0,1,1-1.8,0v-.8a1.007,1.007,0,0,0-1.041-1.007h-.075a6.247,6.247,0,0,1-5.39,2.856h-1.544a6.384,6.384,0,0,1-5.353-2.862A1.082,1.082,0,0,0,253,51.771v.734a.9.9,0,1,1-1.8,0v-.734a2.872,2.872,0,0,1,2.056-2.736A6.37,6.37,0,0,1,253,47.212V45.889h-.251a1.115,1.115,0,0,0-1.1,1.072v.722a.9.9,0,1,1-1.8,0v-.722a2.92,2.92,0,0,1,2.906-2.876H253v-1.2h-.77A2.868,2.868,0,0,1,249.394,40v-.238a.9.9,0,0,1,1.8,0V40a1.063,1.063,0,0,0,1.034,1.08H253v-.754a2.2,2.2,0,0,1,1.31-2.017,5.852,5.852,0,0,1,.724-2.2l-1.773-2a.9.9,0,0,1,1.351-1.2l1.565,1.769q.1-.087.194-.17a3.839,3.839,0,0,1,7.649.05q.145.125.282.259l1.521-1.72a.9.9,0,1,1,1.347,1.2l-1.778,2a5.856,5.856,0,0,1,.621,2.029,2.186,2.186,0,0,1,1.268,2v.754h.759A1.071,1.071,0,0,0,269.087,40v-.238a.9.9,0,1,1,1.8,0Z" transform="translate(-218.456 -28)" fill="#e40022"/>
  <path id="Path_481" data-name="Path 481" d="M322.037,73.733a4.14,4.14,0,0,0-4.005,3.2h8.011A4.14,4.14,0,0,0,322.037,73.733Z" transform="translate(-280.324 -66.858)" fill="#e40022"/>
</svg>
