<svg id="_072-password" data-name="072-password" xmlns="http://www.w3.org/2000/svg" width="66.745" height="63.437" viewBox="0 0 66.745 63.437">
  <path id="Path_529" data-name="Path 529" d="M37.825,184.039h8.05v-6.027a.877.877,0,0,1,.887-.888H87.982a.877.877,0,0,1,.887.888v6.027h8.05a3.9,3.9,0,0,0,3.826-4V143H34v37.04A3.9,3.9,0,0,0,37.825,184.039Zm19.625-25.1a.969.969,0,0,1,.977-.9h1.578v-2.525a7.425,7.425,0,0,1,7.38-7.481,7.172,7.172,0,0,1,5.158,2.126,7.459,7.459,0,0,1,2.195,5.355v2.525h1.578a.841.841,0,0,1,.827.9v14.251a.869.869,0,0,1-.827.933H58.428a1,1,0,0,1-.977-.933Z" transform="translate(-34 -128.268)" fill="#e40022"/>
  <path id="Path_530" data-name="Path 530" d="M218.085,255H202v12.477h16.085Zm-7.216,8.193a.9.9,0,1,1-1.8,0v-2.122a.9.9,0,0,1,1.8,0Z" transform="translate(-176.745 -223.432)" fill="#e40022"/>
  <path id="Path_531" data-name="Path 531" d="M230.124,194.115a5.656,5.656,0,0,0-1.647-4.074,5.355,5.355,0,0,0-3.88-1.6,5.632,5.632,0,0,0-5.6,5.677v2.525h11.124Z" transform="translate(-191.19 -166.876)" fill="#e40022"/>
  <ellipse id="Ellipse_26" data-name="Ellipse 26" cx="2.25" cy="2.404" rx="2.25" ry="2.404" transform="translate(3.939 4.207)" fill="#e40022"/>
  <path id="Path_532" data-name="Path 532" d="M125,388.072v6.706h39.385V382H125Zm26.242-2.687a.9.9,0,0,1,1.276,0l1.726,1.726,1.726-1.726a.9.9,0,1,1,1.275,1.276l-1.726,1.726,1.642,1.641a.9.9,0,0,1-1.275,1.276l-1.642-1.642L152.6,391.3a.9.9,0,1,1-1.275-1.276l1.641-1.641-1.726-1.726A.9.9,0,0,1,151.242,385.385Zm-9.551,0a.9.9,0,0,1,1.276,0l1.726,1.726,1.726-1.726a.9.9,0,1,1,1.276,1.276l-1.726,1.726,1.641,1.642a.9.9,0,1,1-1.275,1.276l-1.641-1.642-1.642,1.642a.9.9,0,1,1-1.275-1.276l1.641-1.641-1.726-1.726A.9.9,0,0,1,141.691,385.385Zm-9.551,0a.9.9,0,0,1,1.275,0l1.726,1.726,1.726-1.726a.9.9,0,0,1,1.276,1.276l-1.726,1.726,1.641,1.641a.9.9,0,1,1-1.275,1.276l-1.642-1.642L133.5,391.3a.9.9,0,0,1-1.276-1.276l1.642-1.641-1.726-1.726a.9.9,0,0,1,0-1.276Z" transform="translate(-111.32 -331.34)" fill="#e40022"/>
  <path id="Path_533" data-name="Path 533" d="M130.594,72.988a2.41,2.41,0,1,0,2.25,2.4A2.334,2.334,0,0,0,130.594,72.988Z" transform="translate(-114.162 -68.781)" fill="#e40022"/>
  <ellipse id="Ellipse_27" data-name="Ellipse 27" cx="2.25" cy="2.404" rx="2.25" ry="2.404" transform="translate(24.425 4.207)" fill="#e40022"/>
  <path id="Path_534" data-name="Path 534" d="M100.745,49.132A4.019,4.019,0,0,0,96.918,45H37.825A4.018,4.018,0,0,0,34,49.132v8.8h66.745ZM40.189,55.82a4.211,4.211,0,1,1,4.054-4.208A4.138,4.138,0,0,1,40.189,55.82Zm10.243,0a4.212,4.212,0,1,1,4.054-4.209A4.138,4.138,0,0,1,50.432,55.82Zm10.243,0a4.212,4.212,0,1,1,4.054-4.209A4.138,4.138,0,0,1,60.675,55.82Z" transform="translate(-34 -45)" fill="#e40022"/>
</svg>
